Visualização (cont.)
…
1.2 Dataframe já contendo os totais

df_tot <- df %>% 
  count(Sexo, Cabelos, Olhos)

df_tot

## # A tibble: 32 x 4
##    Sexo  Cabelos   Olhos         n
##    <chr> <chr>     <chr>     <int>
##  1 Homem Castanhos Avelã        10
##  2 Homem Castanhos Azuis        11
##  3 Homem Castanhos Castanhos    32
##  4 Homem Castanhos Verdes        3
##  5 Homem Louros    Avelã        25
##  6 Homem Louros    Azuis        50
##  7 Homem Louros    Castanhos    53
##  8 Homem Louros    Verdes       15
##  9 Homem Pretos    Avelã         7
## 10 Homem Pretos    Azuis        10
## # … with 22 more rows
…
fones_long <- fones %>% 
  pivot_longer(
    cols = -Ano,
    names_to = 'Região',
    values_to = 'n'
  )

fones_long

## # A tibble: 49 x 3
##      Ano Região       n
##    <dbl> <chr>    <dbl>
##  1  1951 N.Amer   45939
##  2  1951 Europe   21574
##  3  1951 Asia      2876
##  4  1951 S.Amer    1815
##  5  1951 Oceania   1646
##  6  1951 Africa      89
##  7  1951 Mid.Amer   555
##  8  1956 N.Amer   60423
##  9  1956 Europe   29990
## 10  1956 Asia      4708
## # … with 39 more rows
…
